%YAML 1.1
%TAG !u! tag:unity3d.com,2011:
--- !u!114 &11400000
MonoBehaviour:
  m_ObjectHideFlags: 0
  m_CorrespondingSourceObject: {fileID: 0}
  m_PrefabInstance: {fileID: 0}
  m_PrefabAsset: {fileID: 0}
  m_GameObject: {fileID: 0}
  m_Enabled: 1
  m_EditorHideFlags: 0
  m_Script: {fileID: 11500000, guid: 003870883b01db64fba2291c23b298c5, type: 3}
  m_Name: Player2
  m_EditorClassIdentifier: 
  prefab: {fileID: 3849364516535843620, guid: 3c971b8bcfdf50e49b484a6f640c24b4, type: 3}
  healthPts: 5
  speed: 0
  jumpHeight: 5
  moveForward: 111
  moveBackWard: 108
  turnLeft: 107
  turnRight: 109
  jump: 110
  grabObject: 105
  inventoryScroll: 105
  useObject: 112
